…
```r
Beers
```

```
## # A tibble: 2,410 x 7
##    Name           Beer_ID   ABV   IBU Brewery_id Style               Ounces
##    <chr>            <dbl> <dbl> <dbl>      <dbl> <chr>                <dbl>
##  1 Pub Beer          1436 0.05     NA        409 American Pale Lager     12
##  2 Devil's Cup       2265 0.066    NA        178 American Pale Ale …     12
##  3 Rise of the P…    2264 0.071    NA        178 American IPA            12
##  4 Sinister          2263 0.09     NA        178 American Double / …     12
##  5 Sex and Candy     2262 0.075    NA        178 American IPA            12
##  6 Black Exodus      2261 0.077    NA        178 Oatmeal Stout           12
##  7 Lake Street E…    2260 0.045    NA        178 American Pale Ale …     12
##  8 Foreman           2259 0.065    NA        178 American Porter         12
##  9 Jade              2258 0.055    NA        178 American Pale Ale …     12
## 10 Cone Crusher      2131 0.086    NA        178 American Double / …     12
## # … with 2,400 more rows
```
…
```r
fullData <- full_join(Breweries, Beers, by = "Brew_ID")
```


```r
fullData
```

```
## # A tibble: 2,410 x 10
##    Brew_ID Name.x   City   State Name.y  Beer_ID   ABV   IBU Style   Ounces
##      <dbl> <chr>    <chr>  <chr> <chr>     <dbl> <dbl> <dbl> <chr>    <dbl>
##  1       1 NorthGa… Minne… MN    Get To…    2692 0.045    50 Americ…     16
##  2       1 NorthGa… Minne… MN    Maggie…    2691 0.049    26 Milk /…     16
##  3       1 NorthGa… Minne… MN    Wall's…    2690 0.048    19 Englis…     16
##  4       1 NorthGa… Minne… MN    Pumpion    2689 0.06     38 Pumpki…     16
##  5       1 NorthGa… Minne… MN    Strong…    2688 0.06     25 Americ…     16
##  6       1 NorthGa… Minne… MN    Parape…    2687 0.056    47 Extra …     16
##  7       2 Against… Louis… KY    Citra …    2686 0.08     68 Americ…     16
##  8       2 Against… Louis… KY    London…    2685 0.125    80 Englis…     16
##  9       2 Against… Louis… KY    35 K       2684 0.077    25 Milk /…     16
## 10       2 Against… Louis… KY    A Beer     2683 0.042    42 Americ…     16
## # … with 2,400 more rows
```
…
```
##  [1] "Brew_ID"     "BreweryName" "City"        "State"       "BeerName"   
##  [6] "Beer_ID"     "ABV"         "IBU"         "Style"       "Ounces"
```

```r
fullData %>%
  group_by(State) %>%
  summarise(count = n())
```

```
## # A tibble: 51 x 2
##    State count
##    <chr> <int>
##  1 AK       25
##  2 AL       10
##  3 AR        5
##  4 AZ       47
##  5 CA      183
##  6 CO      265
##  7 CT       27
##  8 DC        8
##  9 DE        2
## 10 FL       58
## # … with 41 more rows
```
…
```r
BrewStatesC
```

```
## # A tibble: 51 x 2
##    State count
##    <chr> <int>
##  1 AK        7
##  2 AL        3
##  3 AR        2
##  4 AZ       11
##  5 CA       39
##  6 CO       47
##  7 CT        8
##  8 DC        1
##  9 DE        2
## 10 FL       15
## # … with 41 more rows
```
…
